Download State Alternative Labor Market Measures (SALT) Data — get_salt • BLSloadR
…
#> Simple feature collection with 4488 features and 100 fields
#> Geometry type: MULTIPOLYGON
#> Dimension:     XY
#> Bounding box:  xmin: -3115585 ymin: -1702303 xmax: 2263786 ymax: 1570639
#> Projected CRS: USA_Contiguous_Albers_Equal_Area_Conic
#> # A tibble: 4,488 × 101
#>    fips  state   `unemployed_15+_weeks` job_losers discouraged_workers
#>    <chr> <chr>                    <dbl>      <dbl>               <dbl>
#>  1 01    Alabama                  49300      63200                7200
#>  2 01    Alabama                  52200      61400                7300
#>  3 01    Alabama                  54900      61900                7600
#>  4 01    Alabama                  54400      63700                7500
#>  5 01    Alabama                  52000      57400                7600
#>  6 01    Alabama                  46500      52500                7600
#>  7 01    Alabama                  41300      48300                6700
#>  8 01    Alabama                  37300      39900                4500
#>  9 01    Alabama                  36200      36800                3000
#> 10 01    Alabama                  36800      39300                2900
#> # ℹ 4,478 more rows
#> # ℹ 96 more variables: all_marginally_attached <dbl>,
#> #   involuntary_part_time_employed <dbl>, civilian_labor_force <dbl>,
#> #   employed <dbl>, unemployed <dbl>, u1 <dbl>, u2 <dbl>, u3 <dbl>, u4 <dbl>,
#> #   u5 <dbl>, u6 <dbl>, date <date>, not_job_losers <dbl>,
#> #   unemployed_under_14_weeks <dbl>, losers_notlosers_ratio <dbl>, u1b <dbl>,
#> #   u2b <dbl>, u4b <dbl>, u4c <dbl>, …
…
